Lab 7: Functions + Fish
…
9. Use your rescale_column() function to rescale both the length and weight columns.

Warning

I expect that you carry out this process by calling the rescale_column() function only ONE time!

Code

rescale_column(BlackfootFish, c("length","weight"))

# A tibble: 18,352 × 9
    trip  mark length weight  year section  species length_scaled weight_scaled
   <dbl> <dbl>  <dbl>  <dbl> <dbl> <chr>    <chr>           <dbl>         <dbl>
 1     1     0    288    175  1989 Johnsrud RBT             0.280       0.0374 
 2     1     0    288    190  1989 Johnsrud RBT             0.280       0.0406 
 3     1     0    285    245  1989 Johnsrud RBT             0.277       0.0524 
 4     1     0    322    275  1989 Johnsrud RBT             0.315       0.0588 
 5     1     0    312    300  1989 Johnsrud RBT             0.305       0.0641 
 6     1     0    363    380  1989 Johnsrud RBT             0.358       0.0812 
 7     1     0    269    170  1989 Johnsrud RBT             0.261       0.0363 
 8     1     0    160     40  1989 Johnsrud RBT             0.148       0.00855
 9     1     0    213     80  1989 Johnsrud RBT             0.203       0.0171 
10     1     0    157     35  1989 Johnsrud RBT             0.145       0.00748
# ℹ 18,342 more rows
…
